<?xml version="1.0" encoding="UTF-8"?>
<svg width="125px" height="125px" viewBox="0 0 125 125" version="1.1" xmlns="http://www.w3.org/2000/svg" xmlns:xlink="http://www.w3.org/1999/xlink">
    <!-- Generator: Sketch 63.1 (92452) - https://sketch.com -->
    <title>bulb</title>
    <desc>Created with Sketch.</desc>
    <g id="bulb" stroke="none" stroke-width="1" fill="none" fill-rule="evenodd">
        <g id="Bulb" transform="translate(26.000000, 2.000000)" fill-rule="nonzero" stroke="#8A4222" stroke-width="0.75">
            <path d="M36.5,0.375 C46.4754787,0.375 55.5065139,4.43406781 62.0437226,10.9964908 C68.5814527,17.5594373 72.625,26.6260974 72.6251051,36.6319043 C72.5338616,40.484868 71.8917715,44.3046703 70.718286,47.9739287 C68.97847,51.9205907 66.9598701,55.7373815 64.6779107,59.395124 C59.085406,69.2524227 51.2203571,83.1849559 51.2203571,88.3828013 C51.2203571,89.002133 50.9703971,89.5628972 50.5660677,89.9687861 C50.1622598,90.3741515 49.6044389,90.625 48.9882143,90.625 L48.9882143,90.625 L24.0117857,90.625 C23.3955611,90.625 22.8377402,90.3741515 22.4339323,89.9687861 C22.0296029,89.5628972 21.7796429,89.002133 21.7796429,88.3828013 C21.7796429,83.1176033 13.7086464,68.8112464 8.32943632,59.4074171 C6.04193475,55.7602057 4.02264323,51.9679115 2.27929935,48.0459855 C1.10011371,44.3535525 0.458679029,40.5094038 0.375,36.6407823 C0.375,26.6260974 4.41854727,17.5594373 10.9562774,10.9964908 C17.4934861,4.43406781 26.5245213,0.375 36.5,0.375 Z M36.5,4.85939747 C27.7569705,4.85939747 19.8415772,8.41676827 14.1119843,14.1684604 C8.38291295,19.9196291 4.83928571,27.8647608 4.83928571,36.6407823 C4.92197936,40.0353269 5.48075983,43.3920215 6.51785915,46.6681014 C8.22262573,50.2684949 10.1241978,53.7716087 12.2138843,57.1614359 C19.019076,69.1821248 24.7901598,79.6406937 25.9970078,86.1406025 L47.0029922,86.1406025 C48.2093983,79.643074 53.9766998,69.1897887 60.7785048,57.1743618 C62.8716188,53.7793148 64.7754992,50.272455 66.5008428,46.6204348 C67.5192402,43.3920215 68.0780206,40.0353269 68.1606028,36.6499272 C68.1607143,27.8647608 64.617087,19.9196291 58.8880157,14.1684604 C53.1584228,8.41676827 45.2430295,4.85939747 36.5,4.85939747 Z" id="Shape"></path>
            <path d="M23.676328,115.557687 C23.3645271,116.129074 23.3026893,116.779464 23.4538635,117.368985 C23.6038407,117.953839 23.9640241,118.480014 24.5026507,118.806033 L28.6597879,121.323508 C28.9948404,121.516425 29.3778703,121.621646 29.7678589,121.625014 L42.2358192,121.625 C42.6225698,121.621646 43.0055996,121.516425 43.3477095,121.319339 L47.5056126,118.938243 C48.1965155,118.519927 48.6234032,117.734915 48.6250007,116.887775 C48.6265894,116.040576 48.2026057,115.253747 47.5054314,114.827886 C46.8132188,114.405056 45.9617262,114.404372 45.2660896,114.699718 L41.6392655,116.90232 L30.3611745,116.90232 L26.7119822,114.686134 C26.181937,114.36531 25.5780444,114.300357 25.0303918,114.456129 C24.4777474,114.613321 23.9837829,114.994265 23.676328,115.557687 Z" id="Path"></path>
            <path d="M25.4774813,96.365751 C24.8659037,96.3953539 24.3240117,96.6611987 23.9430825,97.0687879 C23.5663954,97.4718381 23.3475221,98.0137742 23.3777895,98.5998012 C23.4080923,99.1865151 23.6822129,99.7050974 24.0989996,100.070155 C24.5282452,100.446124 25.1090204,100.650413 25.9518822,100.622438 L46.6229123,98.6213106 C47.2128258,98.5670802 47.7549012,98.2886318 48.1291859,97.8457733 C48.4993224,97.4078231 48.6741258,96.8449291 48.613031,96.2819269 C48.5521743,95.7208212 48.262341,95.2069716 47.8095701,94.8523309 C47.28225,94.4392984 46.5333362,94.34851 25.4774813,96.365751 Z" id="Path"></path>
            <path d="M25.4774813,104.365751 C24.8659037,104.395354 24.3240117,104.661199 23.9430825,105.068788 C23.5663954,105.471838 23.3475221,106.013774 23.3777895,106.599801 C23.4080923,107.186515 23.6822129,107.705097 24.0989996,108.070155 C24.5282452,108.446124 25.1090204,108.650413 25.9518822,108.622438 L46.6229123,106.621311 C47.2128258,106.56708 47.7549012,106.288632 48.1291859,105.845773 C48.4993224,105.407823 48.6741258,104.844929 48.613031,104.281927 C48.5521743,103.720821 48.262341,103.206972 47.8095701,102.852331 C47.28225,102.439298 46.5333362,102.34851 25.4774813,104.365751 Z" id="Path"></path>
            <path d="M51.470565,41.5108246 C46.4700373,42.2696692 41.4754345,42.6598912 36.4867609,42.6815461 C31.4980527,42.703201 26.5034157,42.3563352 21.4252328,41.6211526 C21.0299805,41.4741377 20.609653,41.4421099 20.2097065,41.5165378 C19.8102611,41.5908725 19.4310779,41.771421 19.1177011,42.0500443 C18.805421,42.3276925 18.5846034,42.6795995 18.468756,43.062474 C18.3538397,43.4422714 18.3422557,43.8524817 18.44692,44.2504671 L28.9579909,77.9410022 C29.1946251,78.7455659 29.8445421,79.3586749 30.6627674,79.5572985 C31.4829278,79.7563917 32.3488534,79.509578 32.9339524,78.9084298 C33.2252679,78.6091236 33.4247146,78.2446142 33.5218976,77.8552217 C33.6189301,77.4664319 33.6139846,77.0528899 33.4969896,76.655015 L24.2271172,47.2789847 L35.2353202,47.1149051 C35.6919805,47.3074955 37.2835898,47.3072143 37.736936,47.1140615 L48.7418683,47.4147848 L39.4709792,76.6625357 C39.2683293,77.2572153 39.3268882,77.9000061 39.6296397,78.4425005 C39.9311497,78.9827702 40.4469909,79.3743202 41.0526874,79.5249385 C41.2618129,79.5563397 41.474631,79.5555849 41.7576741,79.5184678 C42.2726344,79.5401723 42.7624023,79.388612 43.1606372,79.109759 C43.557342,78.8319775 43.863221,78.427774 44.0116901,77.9428957 L54.5257744,44.2426841 C54.6497865,43.845084 54.655469,43.4299537 54.5543923,43.0418639 C54.4531379,42.6530923 54.2447889,42.2915233 53.94131,42.0015769 C53.6356009,41.7094998 53.259262,41.5152026 52.8476469,41.4279813 C52.4301935,41.3395229 51.9771887,41.3609747 51.470565,41.5108246 Z" id="Path"></path>
        </g>
    </g>
</svg>